<?xml version="1.0" encoding="UTF-8" standalone="no"?>
<!-- Created with Inkscape (http://www.inkscape.org/) -->

<svg
   xmlns:i="http://ns.adobe.com/AdobeIllustrator/10.0/"
   xmlns:dc="http://purl.org/dc/elements/1.1/"
   xmlns:cc="http://creativecommons.org/ns#"
   xmlns:rdf="http://www.w3.org/1999/02/22-rdf-syntax-ns#"
   xmlns:svg="http://www.w3.org/2000/svg"
   xmlns="http://www.w3.org/2000/svg"
   xmlns:sodipodi="http://sodipodi.sourceforge.net/DTD/sodipodi-0.dtd"
   xmlns:inkscape="http://www.inkscape.org/namespaces/inkscape"
   width="898.43005mm"
   height="889.4292mm"
   viewBox="0 0 898.43007 889.42918"
   version="1.1"
   id="svg8"
   inkscape:version="0.92.3 (2405546, 2018-03-11)"
   sodipodi:docname="Selo25.svg">
  <defs
     id="defs2" />
  <sodipodi:namedview
     id="base"
     pagecolor="#ffffff"
     bordercolor="#666666"
     borderopacity="1.0"
     inkscape:pageopacity="0.0"
     inkscape:pageshadow="2"
     inkscape:zoom="0.13834897"
     inkscape:cx="1119.3603"
     inkscape:cy="863.78394"
     inkscape:document-units="mm"
     inkscape:current-layer="layer1"
     showgrid="false"
     borderlayer="true"
     showborder="false"
     inkscape:snap-global="false"
     inkscape:window-width="1920"
     inkscape:window-height="1016"
     inkscape:window-x="0"
     inkscape:window-y="27"
     inkscape:window-maximized="1"
     showguides="true"
     inkscape:guide-bbox="true"
     fit-margin-top="0"
     fit-margin-left="0"
     fit-margin-right="0"
     fit-margin-bottom="0" />
  <metadata
     id="metadata5">
    <rdf:RDF>
      <cc:Work
         rdf:about="">
        <dc:format>image/svg+xml</dc:format>
        <dc:type
           rdf:resource="http://purl.org/dc/dcmitype/StillImage" />
        <dc:title></dc:title>
      </cc:Work>
    </rdf:RDF>
  </metadata>
  <g
     inkscape:label="Camada 1"
     inkscape:groupmode="layer"
     id="layer1"
     transform="translate(-807.0152,1067.0286)">
    <g
       id="g1566"
       transform="matrix(4.8475436,0,0,4.8475436,-1082.0089,1930.9496)"
       style="fill:#e6e6e6"
       inkscape:export-filename="/media/angelorosa/2,5 TB/[ Criação ]/Debian/Selo 25 anos/[ Exportado ]/Selo25.svg.png"
       inkscape:export-xdpi="105.91"
       inkscape:export-ydpi="105.91">
      <path
         id="path1424"
         d="m 502.03452,-520.93226 c -2.58931,0.0347 0.48702,1.33106 3.86838,1.85274 0.93763,-0.73139 1.77994,-1.46624 2.53559,-2.18377 -2.1023,0.51475 -4.24447,0.52688 -6.40397,0.33103"
         i:knockout="Off"
         inkscape:connector-curvature="0"
         style="fill:#e6e6e6;stroke-width:1.73314464" />
      <path
         id="path1426"
         d="m 515.92914,-524.39681 c 1.5477,-2.13004 2.67078,-4.45938 3.06767,-6.86845 -0.34836,1.71581 -1.2756,3.19765 -2.15603,4.76441 -4.84068,3.0486 -0.45755,-1.8094 -0.003,-3.65867 -5.2029,6.55649 -0.71752,3.93077 -0.90817,5.76271"
         i:knockout="Off"
         inkscape:connector-curvature="0"
         style="fill:#e6e6e6;stroke-width:1.73314464" />
      <path
         id="path1428"
         d="m 521.06445,-537.74896 c 0.31543,-4.66389 -0.91683,-3.18725 -1.33105,-1.41078 0.48181,0.25304 0.86483,3.28951 1.33105,1.41078"
         i:knockout="Off"
         inkscape:connector-curvature="0"
         style="fill:#e6e6e6;stroke-width:1.73314464" />
      <path
         id="path1430"
         d="m 492.21106,-601.49228 c 1.38305,0.2461 2.98794,0.43675 2.75743,0.76778 1.51824,-0.3345 1.85967,-0.63606 -2.75743,-0.76778"
         i:knockout="Off"
         inkscape:connector-curvature="0"
         style="fill:#e6e6e6;stroke-width:1.73314464" />
      <path
         id="path1432"
         d="m 494.97023,-600.7245 -0.9723,0.20278 0.90644,-0.0832 0.0659,-0.11959"
         i:knockout="Off"
         inkscape:connector-curvature="0"
         style="fill:#e6e6e6;stroke-width:1.73314464" />
      <path
         id="path1434"
         d="m 538.0718,-535.98115 c 0.15598,4.18728 -1.22187,6.22199 -2.468,9.82 l -2.24096,1.11441 c -1.83193,3.55988 0.18199,2.26002 -1.13001,5.09024 -2.86315,2.54253 -8.67612,7.95341 -10.53751,8.44908 -1.36052,-0.0295 0.9203,-1.60489 1.2184,-2.22015 -3.82852,2.62744 -3.07287,3.94463 -8.92916,5.54433 l -0.16985,-0.38303 c -14.4371,6.79393 -34.49305,-6.66741 -34.22961,-25.03181 -0.15252,1.16468 -0.43848,0.87351 -0.75738,1.34146 -0.74526,-9.44737 4.36406,-18.93634 12.98125,-22.81685 8.42828,-4.16995 18.30894,-2.46107 24.34202,3.16992 -3.31378,-4.34326 -9.91532,-8.94823 -17.73354,-8.52187 -7.66223,0.12478 -14.83225,4.99319 -17.22399,10.28101 -3.92384,2.46973 -4.38139,9.52536 -6.09027,10.81829 -2.30335,16.91549 4.32766,24.2207 15.54631,32.81883 1.76087,1.18893 0.49568,1.37091 0.73138,2.27562 -3.72626,-1.74355 -7.13709,-4.37793 -9.94478,-7.60331 1.4905,2.17856 3.09713,4.29647 5.17517,5.96028 -3.51655,-1.1872 -8.21164,-8.51493 -9.57909,-8.81304 6.05734,10.84602 24.57252,19.02127 34.27293,14.96397 -4.48884,0.16639 -10.18915,0.0919 -15.22914,-1.77127 -2.1231,-1.09015 -4.99839,-3.34497 -4.48364,-3.76612 13.23429,4.94119 26.90187,3.74012 38.35102,-5.43688 2.91515,-2.27042 6.0972,-6.13013 7.0175,-6.18212 -1.38478,2.08324 0.23744,1.00175 -0.82671,2.84062 2.89782,-4.68122 -1.26346,-1.90646 2.99834,-8.08339 l 1.5737,2.16643 c -0.58927,-3.88917 4.82681,-8.60679 4.27567,-14.75252 1.24266,-1.87873 1.38478,2.02431 0.0676,6.34677 1.82847,-4.79561 0.48355,-5.56686 0.9515,-9.52536 0.50434,1.33106 1.17507,2.74357 1.5165,4.14915 -1.19241,-4.63616 1.2184,-7.80435 1.81807,-10.49939 -0.59274,-0.25997 -1.83887,2.04858 -2.12657,-3.42469 0.0433,-2.37788 0.66379,-1.24614 0.90123,-1.83194 -0.46448,-0.26864 -1.68981,-2.0919 -2.43333,-5.58766 0.53554,-0.82324 1.44197,2.13004 2.17683,2.24962 -0.47315,-2.77823 -1.286,-4.89786 -1.32066,-7.03136 -2.1491,-4.48885 -0.76085,0.59967 -2.50093,-1.92726 -2.28775,-7.13016 1.89606,-1.65515 2.1803,-4.89267 3.46282,5.01746 5.43687,12.79928 6.34677,16.02119 -0.69325,-3.92904 -1.81113,-7.73676 -3.17858,-11.41969 1.05548,0.44542 -1.69675,-8.08165 1.37091,-2.43507 -3.27391,-12.03669 -14.00034,-23.28479 -23.8706,-28.56049 1.20454,1.10402 2.72797,2.49053 2.18377,2.70891 -4.91174,-2.92035 -4.04863,-3.15086 -4.75229,-4.38486 -3.99489,-1.62742 -4.2618,0.13346 -6.90484,0.003 -7.53918,-4.0001 -8.99156,-3.57548 -15.92934,-6.07814 l 0.31544,1.47664 c -4.99319,-1.66382 -5.81817,0.6274 -11.21345,0.003 -0.32756,-0.25478 1.72968,-0.92897 3.42469,-1.17334 -4.82854,0.6378 -4.60323,-0.95323 -9.32778,0.17505 1.16294,-0.81632 2.39694,-1.35879 3.63787,-2.05205 -3.93597,0.23918 -9.40058,2.29122 -7.71423,0.42289 -6.4213,2.86662 -17.82712,6.88925 -24.22762,12.89113 l -0.20105,-1.34492 c -2.93248,3.52002 -12.78887,10.51325 -13.57399,15.07662 l -0.78511,0.18198 c -1.52344,2.58412 -2.51306,5.5114 -3.7228,8.16831 -1.99485,3.40217 -2.92554,1.31026 -2.64131,1.84407 -3.92557,7.9586 -5.87883,14.64507 -7.56171,20.13221 1.19934,1.7938 0.0295,10.80096 0.48182,18.0091 -1.96886,35.60573 24.98847,70.1733 54.4554,78.15269 4.31899,1.5477 10.7403,1.49224 16.20317,1.64476 -6.44383,-1.84407 -7.27574,-0.97576 -13.55666,-3.16472 -4.52871,-2.13524 -5.52007,-4.57031 -8.72985,-7.35547 l 1.2704,2.24442 c -6.29132,-2.22709 -3.65867,-2.7557 -8.77838,-4.37619 l 1.35705,-1.76954 c -2.03991,-0.15598 -5.40221,-3.43509 -6.32078,-5.25663 l -2.23229,0.0884 c -2.67944,-3.30337 -4.10928,-5.68991 -4.00356,-7.53917 l -0.72099,1.28599 c -0.81631,-1.40212 -9.86333,-12.40585 -5.16997,-9.84426 -0.87177,-0.79378 -2.03125,-1.29466 -3.28778,-3.58068 l 0.95497,-1.09015 c -2.25482,-2.90648 -4.15608,-6.63101 -4.0105,-7.87194 1.20454,1.62569 2.03991,1.93072 2.86835,2.20976 -5.70377,-14.14939 -6.02441,-0.77818 -10.34167,-14.40243 l 0.91163,-0.0728 c -0.69845,-1.05896 -1.12654,-2.2011 -1.68808,-3.32591 l 0.39863,-3.96023 c -4.10409,-4.74189 -1.14735,-20.18247 -0.55288,-28.64888 0.40729,-3.44203 3.42643,-7.10763 5.71938,-12.85647 l -1.39692,-0.23918 c 2.67251,-4.65869 15.25514,-18.71622 21.08544,-17.99524 2.82329,-3.54601 -0.56154,-0.0139 -1.11441,-0.9047 6.20292,-6.41783 8.15271,-4.5339 12.33826,-5.68991 4.51137,-2.67771 -3.87358,1.04682 -1.73488,-1.02082 7.80435,-1.99139 5.52873,-4.53044 15.70749,-5.54087 1.07455,0.61007 -2.49053,0.94283 -3.38483,1.73488 6.49929,-3.18205 20.57069,-2.45586 29.71476,1.76434 10.60165,4.95853 22.52048,19.6088 22.9919,33.3925 l 0.53554,0.14385 c -0.27037,5.4802 0.83884,11.81831 -1.08668,17.63821 l 1.30159,-2.75743"
         i:knockout="Off"
         inkscape:connector-curvature="0"
         style="fill:#e6e6e6;stroke-width:1.73314464" />
      <path
         id="path1436"
         d="m 473.7652,-517.37931 -0.36569,1.8146 c 1.70368,2.31375 3.05553,4.81988 5.22716,6.62235 -1.56329,-3.0486 -2.72277,-4.3086 -4.86147,-8.43695"
         i:knockout="Off"
         inkscape:connector-curvature="0"
         style="fill:#e6e6e6;stroke-width:1.73314464" />
      <path
         id="path1438"
         d="m 477.78783,-517.53529 c -0.90124,-0.99829 -1.43158,-2.19763 -2.03125,-3.39003 0.57194,2.09884 1.74355,3.90304 2.83023,5.74017 l -0.79898,-2.35014"
         i:knockout="Off"
         inkscape:connector-curvature="0"
         style="fill:#e6e6e6;stroke-width:1.73314464" />
      <path
         id="path1440"
         d="m 548.99234,-533.01227 -0.37956,0.95669 c -0.69672,4.95333 -2.20629,9.85466 -4.51484,14.4007 2.55119,-4.79561 4.19595,-10.04184 4.8944,-15.35739"
         i:knockout="Off"
         inkscape:connector-curvature="0"
         style="fill:#e6e6e6;stroke-width:1.73314464" />
      <path
         id="path1442"
         d="m 492.7258,-602.73495 c 1.74875,-0.63953 4.30167,-0.35183 6.16307,-0.77298 -2.42294,0.20278 -4.83374,0.3241 -7.21335,0.6274 l 1.05028,0.14558"
         i:knockout="Off"
         inkscape:connector-curvature="0"
         style="fill:#e6e6e6;stroke-width:1.73314464" />
      <path
         id="path1444"
         d="m 431.24943,-570.04437 c 0.40382,3.73319 -2.80769,5.18383 0.71059,2.7193 1.88913,-4.25314 -0.73485,-1.17334 -0.71059,-2.7193"
         i:knockout="Off"
         inkscape:connector-curvature="0"
         style="fill:#e6e6e6;stroke-width:1.73314464" />
      <path
         id="path1446"
         d="m 427.11068,-552.75799 c 0.81285,-2.49053 0.95843,-3.9845 1.26866,-5.42821 -2.24095,2.86662 -1.03295,3.47842 -1.26866,5.42821"
         i:knockout="Off"
         inkscape:connector-curvature="0"
         style="fill:#e6e6e6;stroke-width:1.73314464" />
    </g>
    <path
       style="fill:#000000;stroke-width:1.37701321"
       d="m 1156.6309,-319.67567 c 0.5204,-2.07315 1.2724,-5.40111 1.6713,-7.39548 0.6841,-3.42055 1.1817,-3.62614 8.7731,-3.62614 9.6149,0 13.8461,-3.11574 17.0666,-12.56731 l 2.0521,-6.02245 h -5.3035 c -5.1755,0 -5.3258,-0.14089 -6.2328,-5.85229 -1.8623,-11.7269 -15.6418,-68.0224 -18.4536,-75.39145 -1.5895,-4.16548 -2.8902,-7.60349 -2.8906,-7.64008 -4e-4,-0.0397 5.1817,-0.0992 11.5156,-0.13931 l 11.5164,-0.073 0.8677,10.46689 c 0.8241,9.94038 11.0043,63.04326 12.3423,64.38125 0.6299,0.62995 10.4063,-38.597 13.3246,-53.4642 0.8434,-4.29661 1.6032,-10.80298 1.6885,-14.45865 l 0.1552,-6.64667 10.0969,-0.0845 c 5.5534,-0.0468 10.097,0.15756 10.097,0.45432 0,0.29647 -1.8709,5.84023 -4.1577,12.31902 -2.2868,6.47882 -7.896,26.10323 -12.4652,43.60999 -11.3498,43.48759 -11.8278,45.01395 -16.3049,52.07378 -5.1975,8.1955 -13.9576,12.53215 -26.8191,13.2766 l -9.4858,0.54913 z m 282.6283,-28.34875 c -5.1826,-0.58287 -9.7758,-1.41265 -10.207,-1.84391 -0.4315,-0.43142 -0.063,-2.36499 0.8166,-4.2972 0.8804,-1.93222 1.6007,-4.68671 1.6007,-6.12111 0,-4.00799 1.8614,-4.31149 7.7142,-1.25794 11.3526,5.92294 25.4019,1.26548 27.4739,-9.10787 1.1384,-5.69898 -2.7644,-10.3177 -14.5188,-17.1827 -12.004,-7.01066 -18.8735,-14.86475 -20.0886,-22.96772 -1.7998,-12.00226 6.3002,-24.11303 18.5905,-27.79522 11.3615,-3.40404 34.275,-0.96781 32.5745,3.46342 -0.4413,1.14983 -1.1933,4.53633 -1.6713,7.52558 -0.7804,4.88028 -1.0962,5.23327 -3.0953,3.45798 -3.5308,-3.13554 -13.1923,-5.4477 -18.5578,-4.44107 -5.5773,1.04624 -10.5202,6.39175 -10.5202,11.37716 0,5.47191 3.9973,9.89775 14.3065,15.8405 16.5414,9.53527 20.1189,14.17804 20.1189,26.10966 0,14.16737 -9.3442,24.89042 -23.2543,26.68555 -3.4933,0.45071 -7.5908,0.99853 -9.1055,1.21718 -1.5147,0.21869 -6.9944,-0.0794 -12.177,-0.66229 z m -183.6011,-1.77874 c -9.2392,-3.03196 -15.3597,-7.54515 -19.2618,-14.20353 -12.433,-21.21538 -8.3112,-58.8729 7.6429,-69.82606 16.3209,-11.20503 38.5298,-5.67751 44.0063,10.95272 0.9836,2.98695 2.1384,11.16272 2.5662,18.16822 l 0.7777,12.73742 h -22.2198 -22.2199 v 4.47529 c 0.028,13.71992 8.3907,24.84469 19.9948,26.58486 6.1784,0.9265 15.9504,-0.28576 21.3079,-2.64325 1.7117,-0.75322 1.9849,0.25639 1.595,5.89338 -0.3271,4.73108 -1.1657,7.08598 -2.754,7.73387 -4.7603,1.94194 -25.6551,2.02636 -31.443,0.127 z m 18.4814,-62.25079 c -0.6011,-7.48855 -1.3965,-9.76174 -4.5772,-13.0816 -9.8842,-10.31699 -22.5785,-0.7808 -22.6049,16.98128 v 5.16369 h 13.9587 13.9586 z m 38.9342,61.04563 c -8.5336,-4.35975 -11.7319,-11.02321 -11.7319,-24.44193 0,-8.25503 0.6346,-11.433 3.1622,-15.83566 5.6367,-9.81817 16.6147,-14.45865 34.205,-14.45865 h 7.3856 v -4.61408 c 0,-6.3569 -2.5443,-13.07799 -5.5623,-14.69321 -4.7535,-2.54394 -16.7456,-1.51314 -24.5245,2.10808 -8.6949,4.04772 -8.4696,4.01327 -8.4696,1.29521 0,-1.17368 -0.957,-3.98477 -2.1268,-6.24692 l -2.1269,-4.11285 6.1608,-2.72532 c 12.6624,-5.60115 33.3163,-6.00236 43.1669,-0.83835 8.6608,4.54014 9.2419,7.27173 10.0066,47.04015 0.3791,19.69128 1.1899,36.57687 1.8025,37.52353 0.8539,1.31931 -1.1401,1.72127 -8.5376,1.72127 h -9.6516 l -0.4133,-7.76728 -0.4126,-7.76737 -3.4426,5.35757 c -3.7127,5.77804 -13.3502,11.55417 -19.2781,11.55417 -1.9512,0 -6.2765,-1.39423 -9.6118,-3.09836 z m 25.9345,-16.19031 c 4.4639,-4.4639 7.6276,-15.44143 6.8322,-23.70618 -0.3957,-4.11134 -0.8848,-4.54963 -5.5067,-4.93406 -7.1429,-0.59414 -15.2178,1.87705 -18.8836,5.77911 -3.3668,3.5838 -5.16,12.26393 -3.7194,18.00391 2.4317,9.68859 13.8415,12.29318 21.2775,4.85722 z m 42.6559,-20.42152 c 0.3727,-31.34012 0.087,-39.21683 -1.5637,-43.16782 l -2.0193,-4.83293 8.7477,-1.61181 c 4.8113,-0.88649 9.7183,-1.98425 10.9046,-2.43952 1.8934,-0.72658 2.0485,0.57958 1.2705,10.69772 l -0.8862,11.52532 4.0513,-6.22362 c 5.2123,-8.00733 11.5007,-13.25032 18.3553,-15.30407 3.0002,-0.89883 5.6987,-1.38006 5.9967,-1.06938 0.2981,0.31037 -0.065,4.05288 -0.8056,8.31591 -1.3467,7.7484 -1.3491,7.75126 -6.9722,8.5055 -6.0372,0.80978 -11.0776,3.92179 -15.0676,9.30326 -3.6121,4.8717 -5.6449,23.2409 -5.0339,45.48768 l 0.5258,19.14686 -8.9795,9.2e-4 -8.9795,8.7e-4 z"
       id="path1622"
       inkscape:connector-curvature="0"
       inkscape:export-filename="/media/angelorosa/2,5 TB/[ Criação ]/Debian/Selo 25 anos/[ Exportado ]/Selo25.svg.png"
       inkscape:export-xdpi="105.91"
       inkscape:export-ydpi="105.91" />
    <g
       id="g1587"
       style="fill:#a80030;fill-opacity:1"
       transform="matrix(3.9688963,0,0,3.9688963,-1707.2062,327.34626)"
       inkscape:export-filename="/media/angelorosa/2,5 TB/[ Criação ]/Debian/Selo 25 anos/[ Exportado ]/Selo25.svg.png"
       inkscape:export-xdpi="105.91"
       inkscape:export-ydpi="105.91">
      <g
         id="g1635"
         transform="translate(-1.1339286,5.2916667)">
        <g
           transform="translate(2.2678571,2.2678571)"
           id="g1298"
           style="fill:#a80030;fill-opacity:1">
          <path
             inkscape:connector-curvature="0"
             id="path1218"
             d="m 716.9182,-304.18205 c 0.87002,-1.37189 5.2267,-6.15922 5.60515,-6.15922 0.13026,0 0.15188,0.13746 0.048,0.30547 -0.11697,0.18925 -0.0726,0.23364 0.11668,0.11667 0.168,-0.10383 0.30546,-0.35238 0.30546,-0.55233 0,-0.61391 4.07743,-3.70156 4.52381,-3.42568 0.35931,0.22207 1.33192,-0.40694 1.13126,-0.73161 -0.10752,-0.17398 -0.0597,-0.21748 0.11824,-0.10752 0.16435,0.10158 0.92529,-0.23721 1.69099,-0.75286 0.7657,-0.51566 1.69142,-0.93493 2.05717,-0.93172 0.56097,0.005 0.45467,0.12849 -0.67959,0.78991 -1.39333,0.8125 -2.52584,1.85009 -2.01933,1.85009 0.15948,0 0.35878,-0.11134 0.44289,-0.24742 0.20832,-0.33707 2.8364,-1.75664 4.7731,-2.57821 0.87313,-0.37039 1.64703,-0.74935 1.71979,-0.84213 0.23481,-0.29943 2.97556,-1.56873 5.55625,-2.57323 1.38245,-0.53809 2.69214,-1.15684 2.91042,-1.375 0.35276,-0.35254 0.3454,-0.37868 -0.0661,-0.23509 -0.31377,0.10948 -0.46303,0.0268 -0.46303,-0.25646 0,-0.57792 -1.43981,-0.28877 -3.69303,0.74164 -0.95201,0.43536 -2.20717,0.82672 -2.78926,0.86969 -1.14215,0.0843 -3.12336,0.96271 -6.87916,3.04994 -1.30969,0.72784 -2.61938,1.42967 -2.91042,1.55963 -1.88181,0.8403 -8.94783,7.03303 -9.96276,8.73148 -0.31564,0.5282 -0.77349,1.19849 -1.01745,1.48954 -0.63026,0.75188 -1.6612,2.51354 -1.47096,2.51354 0.0878,0 0.51617,-0.56211 0.95187,-1.24912 z"
             style="fill:#a80030;fill-opacity:1;stroke-width:0.26458335" />
          <path
             inkscape:connector-curvature="0"
             id="path1216"
             d="m 720.59614,-306.1621 c 0.5786,-0.72781 0.58931,-0.78174 0.10361,-0.52181 -0.29793,0.15945 -0.73754,0.58881 -0.97691,0.95414 -0.60449,0.92256 0.0562,0.59549 0.8733,-0.43233 z"
             style="fill:#a80030;fill-opacity:1;stroke-width:0.26458335" />
          <path
             inkscape:connector-curvature="0"
             id="path1214"
             d="m 723.22103,-308.5238 c 1.60393,-1.45908 2.02832,-2.05215 1.12099,-1.56656 -0.56516,0.30246 -2.93598,2.56248 -2.93598,2.79877 0,0.31897 0.43283,0.0251 1.81499,-1.23221 z"
             style="fill:#a80030;fill-opacity:1;stroke-width:0.26458335" />
          <path
             inkscape:connector-curvature="0"
             id="path1212"
             d="m 734.89213,-312.4476 c 0.64679,-0.40904 0.1885,-0.52351 -0.52191,-0.13035 -0.38324,0.2121 -0.49427,0.36809 -0.26418,0.37117 0.21828,0.003 0.57202,-0.10544 0.78609,-0.24082 z"
             style="fill:#a80030;fill-opacity:1;stroke-width:0.26458335" />
          <path
             inkscape:connector-curvature="0"
             id="path1210"
             d="m 736.65342,-313.40627 c 1.90653,-0.78004 3.80262,-1.75853 3.80262,-1.96237 0,-0.11152 -0.32742,-0.16956 -0.7276,-0.12898 -1.1513,0.11675 -2.48155,0.69006 -2.36497,1.01924 0.0586,0.16536 -0.3825,0.56317 -0.98016,0.88401 -1.28513,0.68991 -1.16347,0.77464 0.27011,0.1881 z"
             style="fill:#a80030;fill-opacity:1;stroke-width:0.26458335" />
          <path
             inkscape:connector-curvature="0"
             id="path1110"
             d="m 733.45855,-310.05409 c -0.0852,-0.13784 -0.0421,-0.32031 0.0957,-0.4055 0.13784,-0.0852 0.32031,-0.0421 0.4055,0.0957 0.0852,0.13784 0.0421,0.32032 -0.0957,0.40551 -0.13784,0.0852 -0.32032,0.0421 -0.40551,-0.0957 z"
             style="fill:#a80030;fill-opacity:1;stroke-width:0.26458335" />
          <path
             inkscape:connector-curvature="0"
             id="path1108"
             d="m 735.42896,-311.26731 c 0,-0.21828 0.11906,-0.39687 0.26458,-0.39687 0.14552,0 0.26458,0.17859 0.26458,0.39687 0,0.21828 -0.11906,0.39688 -0.26458,0.39688 -0.14552,0 -0.26458,-0.1786 -0.26458,-0.39688 z"
             style="fill:#a80030;fill-opacity:1;stroke-width:0.26458335" />
        </g>
        <path
           style="fill:#a80030;fill-opacity:1;stroke-width:0.30491042"
           d="m 751.39996,-318.45664 c -2.48651,-0.0153 -5.45234,0.56488 -9.02522,1.75979 -2.18011,0.7291 -4.22646,1.42863 -4.54746,1.55433 -0.40877,0.16009 -0.51768,0.12124 -0.36327,-0.12863 0.12135,-0.1962 0.14258,-0.35671 0.047,-0.35671 -0.52554,0 -5.28019,2.58515 -7.35416,3.99836 -2.23899,1.52564 -6.33833,5.11473 -5.86953,5.13881 0.11374,0.006 0.38821,-0.16318 0.60982,-0.37518 2.86744,-2.74319 10.32525,-7.98557 9.97331,-7.01056 -0.0652,0.18082 -1.62782,1.32709 -3.47253,2.54767 -3.78607,2.50514 -8.1919,6.77567 -10.24962,9.934 -0.6972,1.0701 -1.33621,1.87741 -1.41976,1.79374 -0.0836,-0.0836 0.0724,-0.49496 0.34659,-0.91354 0.56134,-0.8567 0.6129,-1.08744 0.2436,-1.08744 -0.40715,0 -3.21567,5.62866 -4.7166,9.45222 -2.23264,5.68763 -2.55953,9.1831 -0.99571,10.65221 0.40229,0.37796 1.11344,1.29123 1.58052,2.03017 0.62517,0.98905 1.04586,1.34351 1.59362,1.34351 0.9087,0 1.55084,0.78258 1.56386,1.90568 0.006,0.50881 0.17642,0.83851 0.43416,0.83851 0.23359,0 0.50371,0.20581 0.60028,0.45736 0.0966,0.25155 0.38839,0.45738 0.64855,0.45738 0.58554,0 2.90021,1.43497 2.90021,1.79789 0,0.1459 0.85756,0.81934 1.90569,1.49656 2.20368,1.42386 4.60323,1.8984 6.47398,1.28098 0.94171,-0.31076 1.10124,-0.49062 1.04038,-1.17497 -0.11443,-1.28631 0.36687,-4.11991 0.7849,-4.62011 0.54454,-0.6516 1.68774,-5.67156 1.68713,-7.41016 -4.5e-4,-1.65615 1.12609,-5.93527 2.22371,-8.44578 0.40306,-0.92187 0.82192,-2.13797 0.9308,-2.7025 0.64044,-3.32103 7.47808,-10.87559 11.36152,-12.55255 0.68916,-0.2976 1.99265,-0.88442 2.89665,-1.30421 4.14141,-1.92316 4.50911,-2.03886 6.42931,-2.03194 2.56978,0.009 4.24762,0.43154 4.89524,1.23097 0.88637,1.0941 0.70813,2.53048 -1.14936,9.25985 -0.65352,2.36749 -4.68284,10.50804 -6.32689,12.78242 -2.94708,4.07687 -4.1862,5.55552 -8.72449,10.41162 -1.41055,1.5093 -3.07494,3.43025 -3.69823,4.26875 -0.62332,0.83851 -1.46308,1.86757 -1.86639,2.28683 -0.40333,0.41925 -0.93678,1.03669 -1.18509,1.37209 -0.48203,0.65099 1.13823,-0.68234 2.50777,-2.0641 0.45355,-0.45759 0.96012,-0.83254 1.12554,-0.83254 0.83545,0 0.44931,0.69585 -1.27086,2.2898 -3.44729,3.19432 -6.30562,6.05933 -6.17505,6.18992 0.24835,0.24835 9.93633,-8.48068 11.26323,-10.14839 1.09232,-1.37286 3.48043,-3.36279 3.73277,-3.11044 0.40843,0.4084 -14.5708,14.58736 -23.35543,22.10779 -0.84859,0.72647 -1.54299,1.46381 -1.54299,1.63828 0,0.18978 0.18708,0.16225 0.4651,-0.0684 1.05088,-0.87215 0.7542,0.0912 -0.42043,1.36555 -0.69533,0.75432 -1.26432,1.45088 -1.26432,1.54837 0,0.40397 0.47042,0.006 10.72605,-9.08241 2.9215,-2.58886 4.31759,-3.39006 3.61306,-2.07362 -0.17489,0.32679 -0.57051,0.77273 -0.87957,0.99095 -0.30909,0.21823 -1.71439,1.44731 -3.12296,2.7311 -1.40856,1.28381 -3.24742,2.88401 -4.08591,3.55589 -0.8385,0.67189 -2.72069,2.5224 -4.18301,4.11212 -2.36004,2.56568 -2.58621,2.90887 -2.01347,3.05864 0.35488,0.0928 1.17369,-0.0131 1.81994,-0.23582 1.28548,-0.44288 1.52952,-0.15352 0.67057,0.79561 -0.27708,0.30669 -0.40157,0.55802 -0.27515,0.55802 0.50734,0 2.30411,-1.00402 2.30411,-1.28753 0,-0.17471 0.33787,-0.21864 0.79621,-0.1036 0.6701,0.16818 1.06987,-0.0559 2.53039,-1.41558 6.70245,-6.23955 13.03596,-11.74309 14.66787,-12.74668 1.05831,-0.65082 2.68861,-1.91116 3.62319,-2.80076 0.93458,-0.88964 1.29834,-1.17214 0.80814,-0.6271 -0.49019,0.54502 -0.7628,0.99528 -0.60565,0.99989 0.15715,0.005 -1.02014,1.27389 -2.61616,2.82043 -1.59603,1.54653 -3.1493,3.10733 -3.45168,3.46895 l -0.54966,0.65805 1.01239,-0.36446 c 0.5568,-0.20028 2.20752,-1.55579 3.66787,-3.01218 1.46033,-1.4564 2.73571,-2.51675 2.83468,-2.35651 0.0991,0.16026 -0.59439,1.01256 -1.5412,1.89378 -1.64652,1.53244 -2.88823,3.28613 -2.32674,3.28613 0.14602,0 0.52679,-0.29389 0.84625,-0.65329 0.31949,-0.35942 0.96763,-0.89174 1.44058,-1.18332 0.47294,-0.29157 2.2228,-1.86965 3.8888,-3.50647 2.39574,-2.35375 2.9576,-3.06227 2.68584,-3.38974 -0.45417,-0.54721 -0.879,-0.52674 -0.879,0.0429 0,0.25155 -0.13233,0.45737 -0.29421,0.45737 -0.16185,0 -0.77929,0.42641 -1.3721,0.94688 -1.57197,1.38023 -1.31981,0.44449 0.31446,-1.16663 l 1.39233,-1.37269 0.74798,0.70213 0.7474,0.70272 3.57734,-3.76672 c 1.96733,-2.07171 4.11146,-4.67055 4.76483,-5.77543 0.65332,-1.10488 1.44228,-2.38092 1.75323,-2.83531 0.31095,-0.45438 0.56515,-0.95645 0.56515,-1.11602 0,-0.15959 0.42807,-0.65033 0.95105,-1.09041 1.60746,-1.35256 3.09515,-3.98919 5.58724,-9.90066 0.59506,-1.41151 1.26952,-2.78359 1.49836,-3.0491 0.67202,-0.77973 2.00804,-5.37517 2.21715,-7.62514 0.41748,-4.49198 -1.77555,-9.15325 -5.53486,-11.76227 -1.68679,-1.17071 -2.88979,-2.35376 -2.89902,-2.85199 -0.0177,-0.92866 -1.38484,-1.52698 -4.59805,-2.01289 -1.74207,-0.26344 -3.93066,-0.61412 -4.86311,-0.77956 -0.93244,-0.16542 -3.05919,-0.31274 -4.72611,-0.32693 -1.66688,-0.0142 -3.85388,-0.1305 -4.86009,-0.25846 -0.52432,-0.0667 -1.07283,-0.10188 -1.64664,-0.10545 z m -27.64976,12.42748 c -0.0678,0.0266 -0.33576,0.32541 -0.86472,0.92069 -0.59604,0.67081 -1.08572,1.34421 -1.08802,1.49597 -0.008,0.46181 1.02804,-0.62908 1.61743,-1.70381 0.27074,-0.49365 0.403,-0.73949 0.33531,-0.71285 z m -2.48157,3.23551 c -0.25238,-0.0544 -0.69559,0.31477 -0.69559,0.63721 0,0.20221 0.17535,0.17916 0.46511,-0.0613 0.2556,-0.21213 0.4019,-0.4485 0.32515,-0.52525 -0.0264,-0.0264 -0.0587,-0.0429 -0.0946,-0.0506 z m 15.93813,40.31249 c -0.0521,0.002 -0.17648,0.0712 -0.3752,0.187 -0.30536,0.17803 -1.65331,1.35055 -2.99492,2.60543 -1.34161,1.25488 -2.28274,2.2858 -2.09148,2.29041 0.19125,0.005 1.22036,-0.81329 2.28684,-1.81815 1.06648,-1.00487 2.02667,-1.82831 2.13318,-1.82946 0.10648,-10e-4 0.42475,-0.35577 0.70748,-0.7873 0.30662,-0.46794 0.42087,-0.65135 0.3341,-0.64793 z m -6.48054,5.74089 c -0.40407,0.0848 -2.53042,1.87785 -2.53042,2.16654 0,0.15104 0.44593,-0.0385 0.99096,-0.42104 1.02019,-0.71614 1.78589,-1.54968 1.59663,-1.73894 -0.0104,-0.0104 -0.0303,-0.0122 -0.0572,-0.007 z m 18.71089,0.11732 c -0.19228,0.0669 -0.78942,0.5896 -1.44058,1.27026 -1.04957,1.09709 -1.14844,1.27373 -0.43892,0.78849 1.09295,-0.74745 2.13724,-1.85759 1.93606,-2.05875 -0.0104,-0.0104 -0.029,-0.009 -0.0566,0 z m -7.0445,3.80722 c -0.074,0 -0.21978,0.13662 -0.32339,0.30432 -0.1036,0.16771 -0.043,0.3055 0.13459,0.3055 0.17761,0 0.32278,-0.13779 0.32278,-0.3055 0,-0.1677 -0.06,-0.30432 -0.13398,-0.30432 z m -4.1705,3.53802 c -0.008,-0.003 -0.0216,-10e-4 -0.0399,0.005 -0.29347,0.0997 -0.53359,0.3 -0.53359,0.44546 0,0.14544 -0.44593,0.48856 -0.99095,0.76227 -1.18223,0.59375 -4.19252,3.45653 -4.19252,3.98707 0,0.54452 -0.53283,0.78983 -1.94799,0.89804 -2.16068,0.16519 -3.98578,0.47334 -4.30268,0.72656 -0.28207,0.22541 -1.48531,0.4208 -4.57365,0.74261 -3.97719,0.41445 -10.75748,2.5315 -14.27481,4.45694 -1.33874,0.73289 -2.00046,0.92603 -2.69715,0.78669 -0.72529,-0.14506 -1.04181,-0.0379 -1.47751,0.49965 -0.64662,0.79782 -0.30509,1.46962 0.62352,1.22679 0.5828,-0.15242 0.74084,0.30572 0.68068,1.97001 -0.009,0.24176 0.2342,0.31622 0.67294,0.20605 0.51947,-0.13039 0.7265,-0.0187 0.85161,0.45974 0.0909,0.34769 0.0413,0.70886 -0.11075,0.80278 -0.47469,0.29338 -0.30216,0.74441 0.28466,0.74441 0.30852,0 0.72102,0.35108 0.91653,0.78014 0.2057,0.45144 0.90519,1.02378 1.66034,1.35781 0.71772,0.31749 1.40962,0.68188 1.53765,0.80991 0.12801,0.12803 0.67202,0.39292 1.20891,0.58838 v -5.9e-4 c 0.53689,0.19545 1.7536,0.37181 2.70371,0.39185 1.44473,0.0304 2.04357,-0.13913 3.65893,-1.03442 1.0623,-0.58877 2.77098,-1.46657 3.79707,-1.95095 4.91644,-2.32088 6.51895,-3.1343 6.67648,-3.38916 0.0942,-0.15223 0.58332,-0.19481 1.08685,-0.094 0.90442,0.18088 3.32959,-0.64549 3.32959,-1.13448 0,-0.43516 1.87324,-0.87799 5.12274,-1.2119 1.79446,-0.1844 3.94834,-0.4556 4.78685,-0.60208 0.8385,-0.14656 4.00954,-0.2421 7.04687,-0.2126 3.65692,0.0355 5.66546,-0.0605 5.94576,-0.28407 0.8864,-0.7069 4.49864,-0.67973 8.90673,0.0673 2.3558,0.39924 4.42245,0.86536 4.59272,1.03562 0.37985,0.37981 1.71214,0.41187 1.71214,0.0411 0,-0.14781 -0.61294,-0.423 -1.36199,-0.61161 -0.74907,-0.18862 -1.60672,-0.60629 -1.90629,-0.92784 -0.29957,-0.32156 -1.16165,-0.7236 -1.91582,-0.89329 -2.56109,-0.57629 -8.06942,-1.55202 -10.66232,-1.88901 -1.42073,-0.18464 -2.68992,-0.40171 -2.82042,-0.48238 -0.13047,-0.0807 -0.23761,-0.50069 -0.23761,-0.93319 v -0.7867 l 2.05814,0.19951 c 1.13198,0.10971 2.8814,0.28431 3.8876,0.38768 1.00621,0.10372 1.75099,0.10303 1.65497,-0.001 -0.15011,-0.16302 -5.11606,-1.00215 -12.17437,-2.05755 -2.2413,-0.33512 -9.1464,-0.42232 -12.32924,-0.15544 -1.84084,0.15436 -2.25356,0.30631 -3.18844,1.1732 l -1.07433,0.99572 1.16543,-1.3721 c 0.64089,-0.75465 2.41855,-2.57061 3.95076,-4.03589 1.43643,-1.3737 2.41702,-2.44155 2.29216,-2.48753 z"
           id="path1026"
           inkscape:connector-curvature="0" />
      </g>
      <path
         inkscape:connector-curvature="0"
         id="path1146"
         d="m 798.55023,-291.6946 c -0.11922,0.0249 -0.1998,0.13188 -0.29896,0.30907 -0.15983,0.2856 -0.5579,0.51931 -0.88494,0.51931 -0.32708,0 -0.59494,0.12192 -0.59494,0.27096 0,0.14905 -0.4731,0.35965 -1.05112,0.46809 -0.87771,0.16466 -1.28254,0.54618 -2.45834,2.31482 -0.77429,1.16469 -1.55334,2.20726 -1.73119,2.3172 -0.3115,0.19252 -2.0354,0.53818 -7.56558,1.518 -3.31978,0.58819 -6.31977,1.56506 -7.04987,2.29516 -0.31491,0.31491 -0.71011,0.5729 -0.87781,0.5729 -0.47959,0 -0.35641,1.70022 0.20902,2.88593 0.31687,0.66443 0.73154,1.07791 1.08209,1.07791 0.4362,0 0.50423,0.11553 0.29062,0.49726 -0.15721,0.28087 -0.16816,0.84516 -0.0244,1.29587 0.14002,0.43911 0.33376,1.19039 0.42999,1.66927 0.1036,0.51561 0.41891,0.93452 0.77358,1.02729 0.32936,0.0861 0.81699,0.61559 1.08326,1.17675 l 0.48417,1.02015 -1.74369,2.67869 c -0.95892,1.4732 -2.40481,3.63915 -3.21348,4.81306 l -1.47037,2.13436 0.97309,1.066 0.9737,1.06659 -0.99276,-0.89686 c -0.60083,-0.54268 -1.09652,-0.78327 -1.25477,-0.60923 -0.14385,0.15822 -1.26492,1.72894 -2.49169,3.48979 -4.23176,6.07421 -4.81619,6.86521 -6.0583,8.20697 -0.68563,0.74064 -1.24644,1.41097 -1.24644,1.49002 0,0.0792 -0.54884,0.73964 -1.21965,1.46739 -1.35484,1.46984 -1.45387,1.91308 -0.70928,3.17356 0.80057,1.35526 2.57807,1.60492 4.41583,0.61994 0.608,-0.32588 1.19821,-0.49964 1.31197,-0.3859 0.11375,0.11375 0.46887,-0.13413 0.78908,-0.55086 0.47152,-0.61372 0.5832,-0.6561 0.58896,-0.22392 0.003,0.29348 0.10948,0.51709 0.23524,0.49727 0.12578,-0.0198 0.55457,-0.0198 0.95285,0 0.63509,0.0317 0.70208,0.14731 0.54372,0.93915 -0.0993,0.49658 -0.0478,0.98479 0.11432,1.08505 0.16221,0.10026 0.29479,-0.0463 0.29479,-0.32576 0,-0.32135 0.16468,-0.44514 0.44785,-0.33647 0.49984,0.19181 0.7741,-0.13386 1.24403,-1.4781 0.1759,-0.5031 0.47984,-0.88266 0.67534,-0.84267 0.19551,0.04 0.49463,-0.44028 0.66461,-1.06719 0.34602,-1.27608 1.7076,-3.42607 2.16951,-3.42607 0.16535,0 0.70376,-0.63576 1.19641,-1.41259 0.49264,-0.77682 1.59825,-1.88587 2.45714,-2.4643 1.54993,-1.04378 1.55767,-1.05646 1.00346,-1.71274 -0.55792,-0.66067 -0.55771,-0.66075 0.0995,-0.10602 0.6454,0.5448 0.69121,0.53219 2.45239,-0.66997 2.96419,-2.02335 5.43961,-2.92691 10.15136,-3.70478 2.48768,-0.41069 7.81604,-0.21257 9.43198,0.35076 0.8715,0.3038 0.93678,0.42909 0.93678,1.80088 0,2.08128 -1.94893,7.16037 -4.03769,10.52179 -2.30027,3.70184 -7.54117,10.19222 -12.67522,15.69753 -1.23494,1.32425 -1.78144,2.11438 -1.52454,2.20404 0.29996,0.10464 0.24718,0.31332 -0.20964,0.83077 -1.20124,1.36068 -4.93662,4.18745 -8.23258,6.23041 -5.63367,3.49197 -5.85562,3.65155 -5.25315,3.77565 0.29711,0.0612 1.85681,-0.59211 3.46598,-1.4519 2.96467,-1.58407 4.172,-1.96206 1.91581,-0.5997 -0.67702,0.40881 -2.04783,1.25607 -3.04614,1.88247 -3.96125,2.48561 -5.02385,2.82654 -9.93041,3.18607 -1.93878,0.14207 -2.21301,0.24104 -2.51671,0.90759 -0.23322,0.51179 -0.24408,0.92874 -0.0346,1.32029 0.41182,0.76948 0.38725,0.9171 -0.15127,0.9171 -0.25154,0 -0.46793,-0.1715 -0.48116,-0.38112 -0.018,-0.28361 -0.0626,-0.28768 -0.17271,-0.0167 -0.0815,0.20032 -0.005,0.63171 0.17032,0.9588 0.40035,0.74804 -0.009,1.11296 -1.56385,1.39294 -1.43336,0.25817 -1.73815,0.7414 -0.89747,1.42211 0.36208,0.2932 0.65498,0.64825 0.6515,0.78907 -0.003,0.14082 -0.65535,0.55459 -1.44833,0.91891 -1.20909,0.55549 -1.34334,0.69502 -0.83195,0.8659 1.34624,0.44984 1.90249,0.84382 1.86697,1.32266 -0.0216,0.29056 0.14873,0.46218 0.40319,0.40675 0.24225,-0.0528 0.72248,0.0401 1.06718,0.20605 0.91208,0.4391 2.27813,0.71915 3.72622,0.76467 1.69368,0.0532 1.86638,0.31484 0.82302,1.24464 -0.81467,0.72601 -0.8376,0.80674 -0.34005,1.19285 0.29348,0.22772 0.5336,0.6314 0.5336,0.89686 0,0.35982 0.26707,0.46581 1.04993,0.41568 0.5775,-0.037 1.13545,-0.15224 1.23927,-0.25608 0.10384,-0.10395 0.72947,-0.11661 1.39058,-0.028 0.95443,0.12801 1.43735,0.002 2.34399,-0.61221 0.628,-0.42567 1.57593,-0.86435 2.10697,-0.97429 0.531,-0.10983 1.04136,-0.3971 1.1339,-0.6384 0.0926,-0.24131 0.45435,-0.43831 0.80335,-0.43831 1.0592,0 2.32448,-0.83287 2.99611,-1.9712 0.34994,-0.59308 0.84692,-1.07791 1.10411,-1.07791 0.25719,0 0.46749,-0.12826 0.46749,-0.28465 0,-0.15641 0.30872,-0.38096 0.68605,-0.49906 0.37733,-0.1181 1.06249,-0.52942 1.52275,-0.91413 0.4603,-0.38471 1.14497,-0.79716 1.52098,-0.91653 1.30978,-0.41569 2.9928,-1.75007 3.6238,-2.87281 0.35528,-0.63216 2.50384,-2.70825 4.87382,-4.71004 2.33091,-1.96883 4.23776,-3.69984 4.23776,-3.84651 0,-0.26319 1.9006,-2.48028 2.69715,-3.14618 1.8677,-1.56138 4.13581,-4.76364 3.37368,-4.76364 -0.15252,0 -0.27753,0.13183 -0.27753,0.29301 0,0.34651 -1.22491,1.53646 -1.58172,1.53646 -0.55128,0 -0.16431,-0.61456 1.46262,-2.32196 2.81493,-2.95412 2.83136,-2.99823 1.61267,-4.32532 l -1.03621,-1.12793 1.2137,1.06718 c 1.71665,1.50991 1.70694,1.4646 0.57647,2.69536 -1.0553,1.1489 -1.30474,1.71629 -0.65986,1.50133 0.2024,-0.0674 0.58808,-0.52503 0.85698,-1.01657 0.26889,-0.49154 0.78392,-1.02655 1.1446,-1.18927 0.36068,-0.16272 1.00413,-0.93586 1.42985,-1.71809 0.42574,-0.78223 1.10667,-1.64049 1.51324,-1.90689 0.40657,-0.2664 0.83747,-0.79405 0.95763,-1.17259 0.23926,-0.75394 1.36957,-2.46926 1.73357,-2.63105 0.12577,-0.0559 0.22868,-0.28655 0.22868,-0.51215 0,-0.22559 0.18771,-0.59742 0.41688,-0.82659 0.61937,-0.61936 2.93714,-4.79771 2.93714,-5.29484 0,-0.23656 -0.13425,-0.42998 -0.29836,-0.42998 -0.34957,0 0.19927,-1.41736 0.85219,-2.20047 0.25683,-0.30801 0.37111,-0.86403 0.27754,-1.35364 -0.0875,-0.45718 0.0196,-1.11376 0.23819,-1.45904 0.49097,-0.77526 0.89732,-6.29665 0.61458,-8.35229 -0.16173,-1.17596 -0.4889,-1.83207 -1.46439,-2.93595 -1.5101,-1.70884 -4.92714,-4.32344 -7.23269,-5.53424 -1.61886,-0.85016 -1.82507,-0.88004 -5.94576,-0.87543 -3.96752,0.005 -4.54846,0.0831 -8.23258,1.11126 -2.18011,0.60843 -4.54743,1.20147 -5.26089,1.3179 l -1.29706,0.21141 0.53478,-0.93974 c 0.29421,-0.5169 0.74926,-0.94062 1.01121,-0.94153 0.61244,-0.002 1.8104,-1.61713 1.8104,-2.43988 0,-0.87609 0.88004,-2.13557 1.49181,-2.13557 0.39096,0 0.50267,-0.27996 0.49011,-1.22619 -0.0116,-0.8741 0.0953,-1.1832 0.37282,-1.07672 0.21413,0.0822 0.39324,0.0503 0.39897,-0.0703 0.006,-0.12051 0.35931,-0.61676 0.78671,-1.10292 1.08754,-1.23705 3.91203,-1.94914 9.11337,-2.29815 2.34781,-0.15754 7.42204,-0.50873 11.27573,-0.78014 3.85368,-0.27147 7.2602,-0.42714 7.57035,-0.34601 0.38312,0.10015 0.51356,0.0164 0.40676,-0.26202 -0.0865,-0.22545 0.0738,-0.49914 0.3567,-0.60804 0.73942,-0.28457 6.74917,0.12199 9.96677,0.67414 4.61363,0.7917 5.71524,0.83992 5.59321,0.24715 -0.0602,-0.29245 -0.94614,-0.86208 -2.08674,-1.34233 -1.76294,-0.74227 -3.76388,-1.14451 -8.61372,-1.73239 -0.79658,-0.0966 -1.44833,-0.32299 -1.44833,-0.50321 0,-0.51583 6.79188,0.008 8.97282,0.6914 1.01824,0.31928 1.88739,0.5819 1.93072,0.58421 0.0433,0.002 -0.089,-0.26418 -0.2936,-0.59195 -0.4993,-0.79949 -0.1161,-1.10795 0.83731,-0.67355 0.42785,0.19495 1.06274,0.35494 1.41079,0.35494 0.51948,0 0.56692,-0.0798 0.26442,-0.44426 -0.20261,-0.24421 -0.28502,-0.57957 -0.18283,-0.74502 0.18597,-0.30093 -2.2842,-1.55492 -3.06279,-1.55492 -0.22704,0 -0.49331,-0.32176 -0.59195,-0.71463 -0.34232,-1.36381 -4.51615,-2.64985 -10.64091,-3.27838 -1.67546,-0.17193 -3.18773,-0.42625 -3.36058,-0.56515 -0.17281,-0.13889 -4.19785,-0.33002 -8.94421,-0.42521 l -8.62982,-0.1733 -0.97485,-0.81349 c -0.53622,-0.44757 -1.08436,-1.00261 -1.21846,-1.23334 -0.13413,-0.23073 -0.40147,-0.41925 -0.59375,-0.41925 -0.19227,0 -0.88472,-0.37092 -1.53885,-0.82421 -0.67642,-0.46876 -0.98224,-0.65541 -1.18093,-0.614 z m -35.13259,88.7468 c 0.0364,0.006 0.0766,0.0218 0.11851,0.0476 0.1677,0.1036 0.30492,0.24938 0.30492,0.32336 0,0.074 -0.13722,0.134 -0.30492,0.134 -0.1677,0 -0.3049,-0.14517 -0.3049,-0.32278 0,-0.13317 0.0771,-0.20059 0.18639,-0.18222 z"
         style="fill:#a80030;fill-opacity:1;stroke-width:0.30491042" />
      <path
         inkscape:connector-curvature="0"
         id="path966"
         d="m 760.52639,-216.87098 c 0.30537,-0.16343 1.70276,-0.37569 3.10528,-0.4717 3.53712,-0.24211 5.30607,-0.56995 5.22768,-0.96885 -0.0367,-0.18636 0.13489,-0.41615 0.38114,-0.51065 0.24625,-0.0945 0.44771,-0.0115 0.44771,0.18452 0,0.26652 0.0922,0.2641 0.36589,-0.009 0.20125,-0.20125 0.68149,-0.36589 1.0672,-0.36589 0.3857,0 0.70129,-0.15209 0.70129,-0.33797 0,-0.19533 -0.28956,-0.26943 -0.68604,-0.17557 -0.37734,0.0893 -1.64652,0.25126 -2.82043,0.35986 -2.66537,0.24661 -8.75255,1.37973 -9.1055,1.695 -0.30761,0.27475 0.007,0.89795 0.45359,0.89795 0.16883,0 0.55681,-0.13371 0.86219,-0.29714 z"
         style="fill:#a80030;fill-opacity:1;stroke-width:0.30491042" />
      <g
         style="fill:#a80030;fill-opacity:1"
         transform="matrix(-0.30516078,-0.95230084,-0.95230084,0.30516078,736.5585,552.3826)"
         id="g1314">
        <path
           inkscape:connector-curvature="0"
           id="path1300"
           d="m 716.9182,-304.18205 c 0.87002,-1.37189 5.2267,-6.15922 5.60515,-6.15922 0.13026,0 0.15188,0.13746 0.048,0.30547 -0.11697,0.18925 -0.0726,0.23364 0.11668,0.11667 0.168,-0.10383 0.30546,-0.35238 0.30546,-0.55233 0,-0.61391 4.07743,-3.70156 4.52381,-3.42568 0.35931,0.22207 1.33192,-0.40694 1.13126,-0.73161 -0.10752,-0.17398 -0.0597,-0.21748 0.11824,-0.10752 0.16435,0.10158 0.92529,-0.23721 1.69099,-0.75286 0.7657,-0.51566 1.69142,-0.93493 2.05717,-0.93172 0.56097,0.005 0.45467,0.12849 -0.67959,0.78991 -1.39333,0.8125 -2.52584,1.85009 -2.01933,1.85009 0.15948,0 0.35878,-0.11134 0.44289,-0.24742 0.20832,-0.33707 2.8364,-1.75664 4.7731,-2.57821 0.87313,-0.37039 1.64703,-0.74935 1.71979,-0.84213 0.23481,-0.29943 2.97556,-1.56873 5.55625,-2.57323 1.38245,-0.53809 2.69214,-1.15684 2.91042,-1.375 0.35276,-0.35254 0.3454,-0.37868 -0.0661,-0.23509 -0.31377,0.10948 -0.46303,0.0268 -0.46303,-0.25646 0,-0.57792 -1.43981,-0.28877 -3.69303,0.74164 -0.95201,0.43536 -2.20717,0.82672 -2.78926,0.86969 -1.14215,0.0843 -3.12336,0.96271 -6.87916,3.04994 -1.30969,0.72784 -2.61938,1.42967 -2.91042,1.55963 -1.88181,0.8403 -8.94783,7.03303 -9.96276,8.73148 -0.31564,0.5282 -0.77349,1.19849 -1.01745,1.48954 -0.63026,0.75188 -1.6612,2.51354 -1.47096,2.51354 0.0878,0 0.51617,-0.56211 0.95187,-1.24912 z"
           style="fill:#a80030;fill-opacity:1;stroke-width:0.26458335" />
        <path
           inkscape:connector-curvature="0"
           id="path1302"
           d="m 720.59614,-306.1621 c 0.5786,-0.72781 0.58931,-0.78174 0.10361,-0.52181 -0.29793,0.15945 -0.73754,0.58881 -0.97691,0.95414 -0.60449,0.92256 0.0562,0.59549 0.8733,-0.43233 z"
           style="fill:#a80030;fill-opacity:1;stroke-width:0.26458335" />
        <path
           inkscape:connector-curvature="0"
           id="path1304"
           d="m 723.22103,-308.5238 c 1.60393,-1.45908 2.02832,-2.05215 1.12099,-1.56656 -0.56516,0.30246 -2.93598,2.56248 -2.93598,2.79877 0,0.31897 0.43283,0.0251 1.81499,-1.23221 z"
           style="fill:#a80030;fill-opacity:1;stroke-width:0.26458335" />
        <path
           inkscape:connector-curvature="0"
           id="path1306"
           d="m 734.89213,-312.4476 c 0.64679,-0.40904 0.1885,-0.52351 -0.52191,-0.13035 -0.38324,0.2121 -0.49427,0.36809 -0.26418,0.37117 0.21828,0.003 0.57202,-0.10544 0.78609,-0.24082 z"
           style="fill:#a80030;fill-opacity:1;stroke-width:0.26458335" />
        <path
           inkscape:connector-curvature="0"
           id="path1308"
           d="m 736.65342,-313.40627 c 1.90653,-0.78004 3.80262,-1.75853 3.80262,-1.96237 0,-0.11152 -0.32742,-0.16956 -0.7276,-0.12898 -1.1513,0.11675 -2.48155,0.69006 -2.36497,1.01924 0.0586,0.16536 -0.3825,0.56317 -0.98016,0.88401 -1.28513,0.68991 -1.16347,0.77464 0.27011,0.1881 z"
           style="fill:#a80030;fill-opacity:1;stroke-width:0.26458335" />
        <path
           inkscape:connector-curvature="0"
           id="path1310"
           d="m 733.45855,-310.05409 c -0.0852,-0.13784 -0.0421,-0.32031 0.0957,-0.4055 0.13784,-0.0852 0.32031,-0.0421 0.4055,0.0957 0.0852,0.13784 0.0421,0.32032 -0.0957,0.40551 -0.13784,0.0852 -0.32032,0.0421 -0.40551,-0.0957 z"
           style="fill:#a80030;fill-opacity:1;stroke-width:0.26458335" />
        <path
           inkscape:connector-curvature="0"
           id="path1312"
           d="m 735.42896,-311.26731 c 0,-0.21828 0.11906,-0.39687 0.26458,-0.39687 0.14552,0 0.26458,0.17859 0.26458,0.39687 0,0.21828 -0.11906,0.39688 -0.26458,0.39688 -0.14552,0 -0.26458,-0.1786 -0.26458,-0.39688 z"
           style="fill:#a80030;fill-opacity:1;stroke-width:0.26458335" />
      </g>
    </g>
    <g
       id="g1596"
       transform="matrix(2.053889,0,0,2.053889,78.707486,278.2576)"
       inkscape:export-filename="/media/angelorosa/2,5 TB/[ Criação ]/Debian/Selo 25 anos/[ Exportado ]/Selo25.svg.png"
       inkscape:export-xdpi="105.91"
       inkscape:export-ydpi="105.91">
      <path
         style="stroke-width:1.73314464"
         id="path1448"
         d="m 419.65469,-385.98788 c -0.078,0.0815 -0.078,13.00898 -0.23917,16.38341 -0.15945,2.72797 -0.40209,8.5912 -6.18386,8.5912 -5.94295,0 -7.3884,-6.82686 -7.87021,-9.79573 -0.56154,-3.29298 -0.56154,-6.02615 -0.56154,-7.22722 0,-3.85624 0.24091,-14.6208 9.31565,-14.6208 2.73144,0 4.25661,0.80591 5.46114,1.44544 z m -23.28826,9.47856 c 0,22.64527 12.04709,22.64527 13.81316,22.64527 4.97933,0 8.19258,-2.73143 9.55656,-7.46812 l 0.16118,7.14576 c 1.5269,-0.0815 3.05207,-0.24091 5.54087,-0.24091 0.8839,0 1.60489,0 2.24962,0.0815 0.643,0 1.28426,0.078 2.00698,0.15945 -1.28426,-2.56852 -2.24789,-8.35029 -2.24789,-20.88266 0,-12.20654 0,-32.84483 1.04336,-39.11014 -2.88916,1.36745 -5.38142,2.25135 -10.84256,2.73143 2.16817,2.32935 2.16817,3.53388 2.16817,14.13206 -1.52344,-0.48008 -3.45243,-1.04335 -6.7454,-1.04335 -14.3747,0.002 -16.70405,12.53064 -16.70405,21.84975"
         i:knockout="Off"
         inkscape:connector-curvature="0" />
      <path
         style="stroke-width:1.73314464"
         id="path1450"
         d="m 439.92035,-380.60994 c 0.0815,-6.66567 1.44718,-12.60862 7.14749,-12.60862 6.26532,0 6.74367,6.90484 6.58422,12.60862 z m 21.68164,0.80592 c 0,-9.39711 -1.8458,-18.63477 -13.7317,-18.63477 -16.38168,0 -16.38168,18.15469 -16.38168,22.00573 0,16.30196 7.30693,22.72673 19.59493,22.72673 5.45767,0 8.11111,-0.79898 9.55656,-1.20454 -0.0797,-2.89088 0.32063,-4.73842 0.80591,-7.22721 -1.68982,1.04682 -3.85798,2.4108 -8.67612,2.4108 -12.5289,0 -12.69009,-11.40755 -12.69009,-15.34179 h 21.36621 l 0.15598,-4.73495"
         i:knockout="Off"
         inkscape:connector-curvature="0" />
      <path
         style="stroke-width:1.73314464"
         id="path1452"
         d="m 487.72915,-376.3516 c 0,7.46812 -1.36399,17.50823 -10.67964,17.50823 -1.28599,0 -2.89088,-0.24438 -3.93424,-0.48355 -0.16118,-2.89089 -0.16118,-7.87021 -0.16118,-13.65198 0,-6.90831 0.72099,-10.51672 1.28599,-12.288 1.68462,-5.70031 5.45941,-5.7783 6.1804,-5.7783 6.10413,0 7.30867,8.43175 7.30867,14.6936 z m -23.04736,8.75411 c 0,5.94469 0,9.31566 -0.96363,11.88418 3.29298,1.28599 7.38666,2.00698 12.288,2.00698 3.13179,0 12.20653,0 17.1044,-10.03664 2.32935,-4.6587 3.13179,-10.92401 3.13179,-15.66243 0,-2.89089 -0.32236,-9.2342 -2.64997,-13.25162 -2.24616,-3.77133 -5.8615,-5.70032 -9.71428,-5.70032 -7.71076,0 -9.95865,6.42477 -11.16145,9.71774 0,-4.09542 0.078,-18.39039 0.71925,-25.69906 -5.21849,2.4108 -8.43348,2.80942 -11.88417,3.13179 3.13179,1.28253 3.13179,6.58768 3.13179,23.855 v 19.75438"
         i:knockout="Off"
         inkscape:connector-curvature="0" />
      <path
         style="stroke-width:1.73314464"
         id="path1454"
         d="m 511.68121,-354.18641 c -1.60836,-0.24091 -2.73491,-0.40209 -5.06425,-0.40209 -2.56506,0 -4.33633,0.16291 -6.1804,0.40209 0.80245,-1.5269 1.12308,-2.25136 1.36399,-7.46812 0.32236,-7.14923 0.40209,-26.26408 -0.15945,-30.27977 -0.40209,-3.0538 -1.12308,-3.53388 -2.24789,-4.33633 6.58422,-0.643 8.43175,-1.12308 11.48208,-2.56852 -0.63953,3.53041 -0.72445,5.30169 -0.72445,10.67964 -0.15772,27.71124 -0.23917,30.68012 1.53037,33.9731"
         i:knockout="Off"
         inkscape:connector-curvature="0" />
      <path
         style="stroke-width:1.73314464"
         id="path1456"
         d="m 537.39761,-376.9166 c -0.15945,5.06078 -0.24091,8.59466 -1.60836,11.40409 -1.68635,3.61534 -4.49578,4.65869 -6.58422,4.65869 -4.82334,0 -5.86323,-4.01396 -5.86323,-7.9482 0,-7.54785 6.74713,-8.11458 9.79574,-8.11458 z m -22.0872,9.88065 c 0,5.06078 1.5269,10.1181 6.02614,12.288 2.00699,0.8839 4.01397,0.8839 4.6587,0.8839 7.39013,0 9.87719,-5.46287 11.40409,-8.83557 -0.0815,3.53388 0,5.70031 0.24091,8.51321 1.44544,-0.0815 2.89088,-0.24091 5.30169,-0.24091 1.36398,0 2.64997,0.15945 4.01396,0.24091 -0.88391,-1.36399 -1.36399,-2.1699 -1.60836,-5.30169 -0.15945,-3.05034 -0.15945,-6.10241 -0.15945,-10.35901 l 0.0815,-16.38341 c 0,-6.10587 -1.60836,-12.12855 -13.65545,-12.12855 -7.9482,0 -12.60516,2.4108 -14.93451,3.61534 0.96537,1.76781 1.76781,3.28951 2.4888,6.74713 3.13526,-2.73143 7.23068,-4.17688 11.40409,-4.17688 6.66914,0 6.66914,4.41779 6.66914,10.67964 -1.5269,-0.078 -2.81289,-0.23744 -4.98279,-0.23744 -10.20302,0.002 -16.94842,3.93077 -16.94842,14.69533"
         i:knockout="Off"
         inkscape:connector-curvature="0" />
      <path
         style="stroke-width:1.73314464"
         id="path1458"
         d="m 583.65523,-362.13635 c 0.0815,2.73144 0.0815,5.62232 1.20454,7.95167 -1.76954,-0.15945 -2.81289,-0.40209 -6.1024,-0.40209 -1.92899,0 -2.97234,0.16292 -4.49925,0.40209 0.3189,-1.04335 0.48355,-1.44544 0.643,-2.81289 0.24091,-1.84407 0.40209,-8.02966 0.40209,-10.19956 v -8.67266 c 0,-3.77478 0,-9.23766 -0.24437,-11.16318 -0.15945,-1.36398 -0.55807,-5.05732 -5.22023,-5.05732 -4.57724,0 -6.10241,3.37097 -6.66568,6.10241 -0.63953,2.80942 -0.63953,5.86322 -0.63953,17.7474 0.078,10.28101 0.078,11.24117 0.88044,14.05407 -1.36399,-0.15945 -3.05034,-0.3189 -5.45941,-0.3189 -1.92899,0 -3.21325,0.078 -4.81641,0.3189 0.56154,-1.286 0.88391,-1.92899 1.04336,-6.42477 0.16291,-4.41779 0.48355,-26.10289 -0.24438,-31.23993 -0.39862,-3.13526 -1.20453,-3.85625 -2.08497,-4.65869 6.50623,-0.32237 8.5912,-1.36746 10.60165,-2.40734 v 8.50974 c 0.96189,-2.49226 2.96887,-8.03313 11.002,-8.03313 10.04011,0 10.1181,7.30867 10.19955,12.12508 v 24.1791"
         i:knockout="Off"
         inkscape:connector-curvature="0" />
      <path
         id="path1460"
         d="m 512.35887,-410.20511 -6.65181,6.64834 -6.64835,-6.64834 6.64835,-6.64835 6.65181,6.64835"
         i:knockout="Off"
         inkscape:connector-curvature="0"
         style="fill:#ffffff;stroke-width:1.73314464" />
    </g>
    <g
       aria-label="Thank you!"
       style="font-style:normal;font-variant:normal;font-weight:normal;font-stretch:normal;font-size:28.49527359px;line-height:1.25;font-family:Angelface;-inkscape-font-specification:'Angelface, Normal';font-variant-ligatures:normal;font-variant-caps:normal;font-variant-numeric:normal;font-feature-settings:normal;text-align:start;letter-spacing:0px;word-spacing:0px;writing-mode:lr-tb;text-anchor:start;opacity:1;vector-effect:none;fill:#a80030;fill-opacity:1;stroke:none;stroke-width:3.96889639;stroke-linecap:butt;stroke-linejoin:miter;stroke-miterlimit:4;stroke-dasharray:none;stroke-dashoffset:0;stroke-opacity:1"
       id="text693-1"
       transform="matrix(0.85682422,-0.15994841,0.15994841,0.85682422,357.77434,131.743)">
      <path
         id="path711-7"
         style="font-style:normal;font-variant:normal;font-weight:normal;font-stretch:normal;font-size:28.49527359px;font-family:Angelface;-inkscape-font-specification:'Angelface, Normal';font-variant-ligatures:normal;font-variant-caps:normal;font-variant-numeric:normal;font-feature-settings:normal;text-align:start;writing-mode:lr-tb;text-anchor:start;vector-effect:none;fill:#a80030;fill-opacity:1;stroke-width:3.96889639;stroke-linecap:butt;stroke-linejoin:miter;stroke-miterlimit:4;stroke-dasharray:none;stroke-dashoffset:0;stroke-opacity:1"
         d="m 1526.2331,-214.70984 c 5.4965,-19.90632 23.026,-71.75196 27.6312,-85.86467 0.8913,-2.52544 -4.7538,-8.17052 -6.5364,-2.97113 -1.7827,5.34798 -20.9463,75.76299 -24.5116,88.09305 -0.5942,2.22833 2.9711,3.71386 3.4168,0.74275 z m -2.6741,8.6162 c -2.0797,-1.18842 -4.9022,-0.44574 -5.7936,1.78264 -0.7428,1.7827 -0.5942,4.01102 1.6342,4.60523 4.308,1.33696 7.4277,-4.60523 4.1594,-6.38787 z m -29.3743,-0.14858 c 7.4278,0 19.4606,-12.0329 20.0548,-12.7757 0.7428,-0.74279 1.04,-5.1994 -0.7426,-3.71386 -6.9822,6.23929 -11.5874,10.10174 -14.8556,11.29017 -4.0109,1.63411 -10.6959,1.18843 -6.0907,-9.06184 2.674,-5.9422 9.0619,-15.00403 10.8445,-17.38094 1.7826,-2.37685 -3.1196,-3.26818 -3.8624,-1.93122 -5.4966,8.46763 -14.4099,19.75779 -21.0949,24.80866 -6.8334,5.19945 -8.0218,1.33701 -5.4964,-5.34797 2.3768,-6.83351 10.3988,-15.15256 12.0328,-17.23236 1.7828,-2.37686 -2.5253,-3.41676 -3.2682,-2.67396 -0.5942,0.74273 -13.964,11.73579 -14.8554,24.66008 -0.8913,12.77575 9.8046,9.95321 20.9462,-4.01098 -4.011,5.9422 -0.5942,13.36992 6.3879,13.36992 z m -44.339,-29.26526 c 10.8445,-7.72489 19.4607,-1.0399 4.3081,17.38089 -5.1994,6.23929 -9.0619,8.31909 -12.1815,8.61619 -5.348,0.29716 -9.8046,-9.95315 7.8734,-24.80866 0.2972,-0.29715 0.2972,-0.74279 0,-1.18842 z m -4.011,-0.89137 c -0.1486,0.14858 -0.1486,0.44573 -0.1486,0.59426 -2.3768,1.78265 -6.0907,5.05082 -8.9133,9.06184 -11.7358,17.08378 1.4856,30.89937 17.5295,14.40981 19.3122,-19.75779 13.667,-33.42486 -0.2971,-29.41389 -3.2682,0.89138 -7.7248,3.71391 -8.1706,5.34798 z m -32.689,30.45379 c -8.9133,6.83351 -18.7179,14.70692 -28.6711,24.36297 -9.656,9.35895 -13.2214,19.75779 -9.0618,23.47165 4.1595,3.86245 12.33,0 19.6092,-7.72482 6.685,-7.13063 14.2613,-22.43181 21.9861,-38.17863 7.1306,-5.49651 13.9642,-10.54737 18.4208,-15.00403 0.5943,-0.59422 0.8913,-5.1994 -0.8913,-3.71386 -3.8624,3.56533 -8.4676,7.13062 -13.667,10.99305 4.4566,-9.06183 9.0618,-17.67804 13.5184,-24.36302 0.8914,-1.18843 -2.5254,-3.56527 -3.4167,-2.52538 -0.8914,0.74274 -13.0728,17.67799 -21.2434,24.51156 -5.1994,4.4566 -9.3589,4.30807 -8.9133,-0.44575 1.1885,-12.62717 13.2215,-21.54048 13.8157,-21.98611 0.5942,-0.59422 -2.377,-2.97112 -4.9024,-1.48553 -2.5254,1.48553 -13.3699,12.0329 -13.8156,23.62017 -0.4457,12.18154 9.5076,12.47865 21.9862,-2.07974 -0.1486,0.59421 -2.2284,5.05086 -4.7538,10.54742 z m -20.2035,22.28323 c 4.6053,-4.90235 10.5475,-9.80463 16.6381,-14.70698 -2.3768,5.05087 -4.6051,9.80463 -6.2392,12.33006 -13.2215,22.28323 -22.1347,27.77978 -24.6601,25.69999 -1.9312,-1.48554 -0.4457,-8.02194 14.2612,-23.32307 z m -43.8121,-79.92254 c 3.714,-4.45665 14.4099,-16.93525 16.1926,-14.70692 2.3768,2.97107 -8.1706,13.66702 -11.8844,17.67799 -9.3591,10.25032 -18.1237,18.56936 -22.8775,22.87749 4.7538,-7.72488 11.1416,-16.78672 18.5693,-25.84856 z m -19.0149,41.00111 c 5.1994,-4.30807 11.4387,-8.76472 18.2722,-12.18148 4.7537,-2.37685 9.6561,-1.48553 5.4965,3.86244 -4.011,5.1994 -17.5295,12.92428 -23.7687,8.31904 z m 35.6531,-45.45776 c 10.5474,-14.11271 1.7827,-20.0549 -9.656,-10.84449 -12.1816,9.95316 -39.3671,53.92541 -46.3492,70.11791 -1.6341,3.71387 2.9711,3.26818 4.011,2.37685 0.5942,-0.44574 5.9422,-6.98208 14.2613,-14.26129 2.5254,5.05088 8.6162,14.40982 20.2034,14.40982 7.5763,0 19.6093,-12.0329 20.2035,-12.7757 0.7428,-0.74279 1.0399,-5.1994 -0.7428,-3.71386 -11.1416,9.80463 -15.7468,12.18148 -19.3121,12.03296 -7.2792,0 -12.1815,-6.2393 -10.2504,-6.83356 2.0799,-0.59421 12.6273,-2.82254 19.9065,-12.03291 8.7647,-11.29016 -1.9312,-13.36997 -10.3989,-9.6561 -10.2503,4.45665 -21.5404,13.8156 -25.9971,17.67804 0.2972,-0.74275 0.7428,-1.63412 1.1885,-2.52544 0.8912,-0.89131 31.9392,-29.11674 42.9323,-43.97223 z m -81.4522,37.28725 c 3.2683,-5.94219 5.9422,-10.84448 5.9422,-11.14159 0,-1.0399 -3.7139,-2.22833 -4.3081,-1.18842 -8.022,15.44971 -13.5185,24.36297 -16.9352,29.71095 -1.3371,2.97112 0.4457,6.68498 2.3768,4.90234 0.4458,-0.44575 2.9712,-4.60524 5.9422,-9.95322 4.1596,-4.90229 9.6561,-10.10174 13.37,-13.3699 7.5763,-6.685 12.3301,-5.64509 8.1705,0.89131 -2.3768,4.01097 -9.0619,11.29016 -8.9133,17.82657 0,5.64508 3.8624,6.68498 7.2792,6.83351 7.1307,0.29716 19.4607,-12.0329 20.0549,-12.7757 0.7428,-0.74279 1.0398,-5.1994 -0.7428,-3.71386 -11.1416,9.80463 -16.0439,12.33007 -19.3121,12.18148 -4.011,-0.29715 -4.011,-5.05086 1.4855,-11.88437 6.2394,-7.87341 9.5076,-15.74682 5.348,-18.27226 -4.6052,-2.82254 -15.3011,4.75377 -19.7578,9.95316 z m -8.3608,11.73585 c 0.7428,-0.74279 1.0398,-5.1994 -0.7428,-3.71386 -4.7538,4.15954 -9.0618,7.13062 -13.0729,9.06184 -13.667,6.83351 -18.1236,1.48553 -8.6161,-13.07281 3.4167,-3.71386 7.2792,-7.57631 7.2792,-8.02199 0,-0.74274 -3.1196,-3.41675 -4.3081,-2.82254 -0.4458,0.14858 -1.4856,1.33701 -2.8226,2.97112 -0.7427,-3.71386 -3.8624,-6.09077 -7.4277,-6.09077 -4.0109,0 -14.8555,3.41675 -22.8774,14.70692 -8.022,11.43875 -4.3081,20.05495 1.1884,20.94628 4.7538,0.74273 8.7647,-0.29717 19.9063,-11.88439 -2.2282,7.42772 2.377,12.62712 9.9532,11.4387 9.359,-1.48554 20.7977,-12.7757 21.5405,-13.5185 z m -28.2255,-7.42773 c -1.0398,0.89133 -14.5583,17.97516 -21.8375,16.04394 -7.7249,-1.93123 6.3878,-25.55145 19.7577,-25.55145 6.0909,0 3.4168,7.42771 3.4168,7.42771 h 0.1486 z m -62.1075,-11.29016 c 5.6451,-11.73585 11.4387,-19.75779 16.0439,-25.25434 14.8555,-18.56937 19.6093,-19.015 20.7977,-17.82657 3.5653,3.11964 -23.3231,30.89937 -36.8416,43.08091 z m -4.0109,9.21036 c 7.1306,-6.23929 22.7289,-20.50053 40.2583,-40.704 10.6959,-12.33007 6.0908,-21.68901 -8.1706,-12.47859 -10.2502,6.68493 -23.7687,22.43175 -45.7548,68.33521 -1.9312,3.71386 0.1486,8.76473 1.4855,7.5763 1.337,-1.33701 13.37,-18.42079 26.7399,-28.07689 8.4676,-6.23929 10.2503,-1.78264 4.1596,5.49656 -5.4966,6.5364 -7.7249,8.91331 -7.2792,14.1127 0.4457,4.60519 4.0109,7.87341 8.6161,8.02194 7.2792,0.29716 19.4607,-12.0329 20.2035,-12.7757 0.7428,-0.74279 1.0399,-5.1994 -0.7428,-3.71386 -11.1416,9.80463 -16.0439,12.33007 -19.3121,12.18148 -3.1197,-0.29715 -6.9821,-3.26817 -1.1884,-10.54737 5.6451,-7.42778 11.8843,-16.19251 8.0219,-19.60926 -4.6052,-4.15954 -18.5693,5.19945 -27.4826,13.36997 z m 4.3939,-53.18259 c 3.2682,-2.22833 6.8336,-3.86245 10.696,-4.75376 11.8843,-2.82255 10.5473,4.45665 0.4457,5.64508 -3.5653,0.44574 -7.2791,0 -11.1416,-0.89132 z m -41.7439,-10.10174 c -16.7867,0 -30.4537,9.95316 -31.3451,23.47165 -0.2971,6.68498 3.5654,12.7757 6.2393,14.40982 2.0798,1.18843 2.2284,-2.37686 1.6342,-3.11965 -2.0798,-1.93123 -3.2682,-6.9821 -2.8226,-12.03296 1.1884,-10.54737 11.7359,-18.7179 25.5514,-18.42078 14.8556,0.29715 23.9174,4.45665 32.9792,7.42772 -24.8086,22.72891 -36.693,69.52368 -56.3023,71.00922 -12.7757,1.0399 -18.7178,-20.50053 -15.004,-27.9283 0.8913,-1.78265 -2.9711,-4.01098 -3.8624,-1.63407 -5.0509,12.92423 3.1196,34.1676 17.9751,34.1676 25.6999,0 37.733,-52.88554 62.5415,-74.12886 4.7538,1.18842 9.8047,1.78263 16.044,1.03984 16.1925,-1.78264 16.1925,-17.82656 -1.0399,-13.8156 -6.0907,1.33701 -11.4387,4.15955 -16.4895,8.02199 -9.9533,-3.26823 -21.3919,-8.31909 -36.0989,-8.46762 z" />
    </g>
  </g>
</svg>
